^C:\USERS\MCL\DESKTOP\COLORBASICS-D2D(DLL)\IMAGERENDERER.CPP
/c /I.\CONNECT\INCLUDE /ZI /nologo /W3 /WX- /Od /Oy- /D WIN32 /D _DEBUG /D _WINDOWS /D _UNICODE /D UNICODE /Gm /EHsc /RTC1 /MTd /GS /fp:precise /Zc:wchar_t /Zc:forScope /Zc:inline /Fo"DEBUG\\" /Fd"DEBUG\VC140.PDB" /Gd /TP /analyze- C:\USERS\MCL\DESKTOP\COLORBASICS-D2D(DLL)\IMAGERENDERER.CPP
^C:\USERS\MCL\DESKTOP\COLORBASICS-D2D(DLL)\COLORBASICS.CPP
/c /I.\CONNECT\INCLUDE /ZI /nologo /W3 /WX- /Od /Oy- /D WIN32 /D _DEBUG /D _WINDOWS /D _UNICODE /D UNICODE /Gm /EHsc /RTC1 /MTd /GS /fp:precise /Zc:wchar_t /Zc:forScope /Zc:inline /Fo"DEBUG\\" /Fd"DEBUG\VC140.PDB" /Gd /TP /analyze- C:\USERS\MCL\DESKTOP\COLORBASICS-D2D(DLL)\COLORBASICS.CPP
^C:\USERS\MCL\DESKTOP\SOCKET\COLORBASICS-D2D(DLL)\IMAGERENDERER.CPP
/c /I.\CONNECT\INCLUDE /ZI /nologo /W3 /WX- /Od /Oy- /D WIN32 /D _DEBUG /D _WINDOWS /D _UNICODE /D UNICODE /Gm /EHsc /RTC1 /MTd /GS /fp:precise /Zc:wchar_t /Zc:forScope /Zc:inline /Fo"DEBUG\\" /Fd"DEBUG\VC140.PDB" /Gd /TP /analyze- C:\USERS\MCL\DESKTOP\SOCKET\COLORBASICS-D2D(DLL)\IMAGERENDERER.CPP
^C:\USERS\MCL\DESKTOP\SOCKET\COLORBASICS-D2D(DLL)\COLORBASICS.CPP
/c /I.\CONNECT\INCLUDE /ZI /nologo /W3 /WX- /Od /Oy- /D WIN32 /D _DEBUG /D _WINDOWS /D _UNICODE /D UNICODE /Gm /EHsc /RTC1 /MTd /GS /fp:precise /Zc:wchar_t /Zc:forScope /Zc:inline /Fo"DEBUG\\" /Fd"DEBUG\VC140.PDB" /Gd /TP /analyze- C:\USERS\MCL\DESKTOP\SOCKET\COLORBASICS-D2D(DLL)\COLORBASICS.CPP
