^C:\USERS\MCL\DESKTOP\SOCKET\COLORBASICS-D2D(DLL)\COLORBASICS.CPP|C:\USERS\MCL\DESKTOP\SOCKET\COLORBASICS-D2D(DLL)\IMAGERENDERER.CPP
C:\USERS\MCL\DESKTOP\SOCKET\COLORBASICS-D2D(DLL)\DEBUG\VC140.PDB
C:\USERS\MCL\DESKTOP\SOCKET\COLORBASICS-D2D(DLL)\DEBUG\VC140.IDB
C:\USERS\MCL\DESKTOP\SOCKET\COLORBASICS-D2D(DLL)\DEBUG\IMAGERENDERER.OBJ
C:\USERS\MCL\DESKTOP\SOCKET\COLORBASICS-D2D(DLL)\DEBUG\COLORBASICS.OBJ
^C:\USERS\MCL\DESKTOP\SOCKET\COLORBASICS-D2D(DLL)\IMAGERENDERER.CPP
C:\USERS\MCL\DESKTOP\SOCKET\COLORBASICS-D2D(DLL)\DEBUG\VC140.PDB
^C:\USERS\MCL\DESKTOP\SOCKET\COLORBASICS-D2D(DLL)\COLORBASICS.CPP
C:\USERS\MCL\DESKTOP\SOCKET\COLORBASICS-D2D(DLL)\DEBUG\VC140.PDB
C:\USERS\MCL\DESKTOP\SOCKET\COLORBASICS-D2D(DLL)\DEBUG\VC140.IDB
C:\USERS\MCL\DESKTOP\SOCKET\COLORBASICS-D2D(DLL)\DEBUG\COLORBASICS.OBJ
