^C:\USERS\MCL\DESKTOP\SOCKET\COLORBASICS-D2D(DLL)\X64\DEBUG\COLORBASICS.OBJ|C:\USERS\MCL\DESKTOP\SOCKET\COLORBASICS-D2D(DLL)\X64\DEBUG\COLORBASICS.RES|C:\USERS\MCL\DESKTOP\SOCKET\COLORBASICS-D2D(DLL)\X64\DEBUG\IMAGERENDERER.OBJ
C:\USERS\MCL\DESKTOP\SOCKET\COLORBASICS-D2D(DLL)\X64\DEBUG\COLORBASICS-D2D.ILK
C:\USERS\MCL\DESKTOP\SOCKET\COLORBASICS-D2D(DLL)\X64\DEBUG\COLORBASICS-D2D.EXE
C:\USERS\MCL\DESKTOP\SOCKET\COLORBASICS-D2D(DLL)\X64\DEBUG\COLORBASICS-D2D.PDB
