^C:\USERS\MCL\DESKTOP\SOCKET\COLORBASICS-D2D(DLL)\X64\RELEASE\COLORBASICS.OBJ|C:\USERS\MCL\DESKTOP\SOCKET\COLORBASICS-D2D(DLL)\X64\RELEASE\COLORBASICS.RES|C:\USERS\MCL\DESKTOP\SOCKET\COLORBASICS-D2D(DLL)\X64\RELEASE\IMAGERENDERER.OBJ
C:\WINDOWS\GLOBALIZATION\SORTING\SORTDEFAULT.NLS
C:\PROGRAM FILES (X86)\WINDOWS KITS\8.1\LIB\WINV6.3\UM\X64\KERNEL32.LIB
C:\PROGRAM FILES (X86)\WINDOWS KITS\8.1\LIB\WINV6.3\UM\X64\USER32.LIB
C:\PROGRAM FILES (X86)\WINDOWS KITS\8.1\LIB\WINV6.3\UM\X64\WINSPOOL.LIB
C:\PROGRAM FILES (X86)\WINDOWS KITS\8.1\LIB\WINV6.3\UM\X64\COMDLG32.LIB
C:\PROGRAM FILES (X86)\WINDOWS KITS\8.1\LIB\WINV6.3\UM\X64\ADVAPI32.LIB
C:\PROGRAM FILES (X86)\WINDOWS KITS\8.1\LIB\WINV6.3\UM\X64\SHELL32.LIB
C:\PROGRAM FILES (X86)\WINDOWS KITS\8.1\LIB\WINV6.3\UM\X64\OLE32.LIB
C:\PROGRAM FILES (X86)\WINDOWS KITS\8.1\LIB\WINV6.3\UM\X64\OLEAUT32.LIB
C:\PROGRAM FILES (X86)\WINDOWS KITS\8.1\LIB\WINV6.3\UM\X64\UUID.LIB
C:\PROGRAM FILES (X86)\WINDOWS KITS\8.1\LIB\WINV6.3\UM\X64\ODBC32.LIB
C:\PROGRAM FILES (X86)\WINDOWS KITS\8.1\LIB\WINV6.3\UM\X64\ODBCCP32.LIB
C:\PROGRAM FILES\MICROSOFT SDKS\KINECT\V1.8\LIB\AMD64\KINECT10.LIB
C:\PROGRAM FILES (X86)\WINDOWS KITS\8.1\LIB\WINV6.3\UM\X64\GDI32.LIB
C:\USERS\MCL\DESKTOP\SOCKET\COLORBASICS-D2D(DLL)\X64\RELEASE\COLORBASICS.RES
C:\USERS\MCL\DESKTOP\SOCKET\COLORBASICS-D2D(DLL)\X64\RELEASE\IMAGERENDERER.OBJ
C:\USERS\MCL\DESKTOP\SOCKET\COLORBASICS-D2D(DLL)\X64\RELEASE\COLORBASICS.OBJ
C:\PROGRAM FILES (X86)\MICROSOFT VISUAL STUDIO 14.0\VC\BIN\X86_AMD64\C2.DLL
C:\PROGRAM FILES (X86)\WINDOWS KITS\8.1\LIB\WINV6.3\UM\X64\D2D1.LIB
C:\PROGRAM FILES (X86)\MICROSOFT VISUAL STUDIO 14.0\VC\LIB\AMD64\LIBCMT.LIB
C:\PROGRAM FILES (X86)\MICROSOFT VISUAL STUDIO 14.0\VC\LIB\AMD64\OLDNAMES.LIB
C:\PROGRAM FILES (X86)\MICROSOFT VISUAL STUDIO 14.0\VC\ATLMFC\LIB\AMD64\ATLS.LIB
C:\PROGRAM FILES (X86)\WINDOWS KITS\8.1\LIB\WINV6.3\UM\X64\SHLWAPI.LIB
C:\USERS\MCL\DESKTOP\SOCKET\COLORBASICS-D2D(DLL)\CONNECT\LIB\X64\CONNECT.LIB
C:\PROGRAM FILES (X86)\MICROSOFT VISUAL STUDIO 14.0\VC\LIB\AMD64\LIBVCRUNTIME.LIB
C:\PROGRAM FILES (X86)\WINDOWS KITS\10\LIB\10.0.10240.0\UCRT\X64\LIBUCRT.LIB
C:\PROGRAM FILES (X86)\MICROSOFT VISUAL STUDIO 14.0\VC\BIN\X86_AMD64\1028\LINKUI.DLL
C:\USERS\MCL\DESKTOP\SOCKET\COLORBASICS-D2D(DLL)\X64\RELEASE\COLORBASICS-D2D.IPDB
C:\USERS\MCL\DESKTOP\SOCKET\COLORBASICS-D2D(DLL)\X64\RELEASE\COLORBASICS-D2D.IOBJ
C:\PROGRAM FILES (X86)\WINDOWS KITS\8.1\BIN\X86\RC.EXE
C:\PROGRAM FILES (X86)\MICROSOFT VISUAL STUDIO 14.0\VC\BIN\CVTRES.EXE
C:\WINDOWS\SYSTEM32\TZRES.DLL
